\relax 
\providecommand\hyper@newdestlabel[2]{}
\providecommand\babel@aux[2]{}
\@nameuse{bbl@beforestart}
\providecommand\HyperFirstAtBeginDocument{\AtBeginDocument}
\HyperFirstAtBeginDocument{\ifx\hyper@anchor\@undefined
\global\let\oldcontentsline\contentsline
\gdef\contentsline#1#2#3#4{\oldcontentsline{#1}{#2}{#3}}
\global\let\oldnewlabel\newlabel
\gdef\newlabel#1#2{\newlabelxx{#1}#2}
\gdef\newlabelxx#1#2#3#4#5#6{\oldnewlabel{#1}{{#2}{#3}}}
\AtEndDocument{\ifx\hyper@anchor\@undefined
\let\contentsline\oldcontentsline
\let\newlabel\oldnewlabel
\fi}
\fi}
\global\let\hyper@last\relax 
\gdef\HyperFirstAtBeginDocument#1{#1}
\providecommand\HyField@AuxAddToFields[1]{}
\providecommand\HyField@AuxAddToCoFields[2]{}
\babel@aux{italian}{}
\babel@aux{italian}{}
\@writefile{toc}{\contentsline {chapter}{Elenco delle figure}{ix}{chapter*.3}\protected@file@percent }
\citation{sicRet}
\@writefile{toc}{\contentsline {chapter}{\numberline {1}Introduzione}{1}{chapter.1}\protected@file@percent }
\@writefile{lof}{\addvspace {10\p@ }}
\@writefile{lot}{\addvspace {10\p@ }}
\@writefile{toc}{\contentsline {section}{\numberline {1.1}Contesto generale in cui si colloca questo lavoro: la sicurezza dei sistemi embedded}{1}{section.1.1}\protected@file@percent }
\@writefile{toc}{\contentsline {section}{\numberline {1.2}Breve storia della sicurezza informatica}{1}{section.1.2}\protected@file@percent }
\@writefile{toc}{\contentsline {subsection}{\numberline {1.2.1}Perché questo è importante}{2}{subsection.1.2.1}\protected@file@percent }
\@writefile{toc}{\contentsline {section}{\numberline {1.3}Problema specifico affrontato in questa tesi}{3}{section.1.3}\protected@file@percent }
\@writefile{toc}{\contentsline {section}{\numberline {1.4}Struttura della tesi}{3}{section.1.4}\protected@file@percent }
\@writefile{toc}{\contentsline {chapter}{\numberline {2}Sistemi Embedded}{5}{chapter.2}\protected@file@percent }
\@writefile{lof}{\addvspace {10\p@ }}
\@writefile{lot}{\addvspace {10\p@ }}
\@writefile{toc}{\contentsline {section}{\numberline {2.1}Cos'è un sistema embedded}{5}{section.2.1}\protected@file@percent }
\newlabel{sec:Definizione sistema embedded}{{2.1}{5}{Cos'è un sistema embedded}{section.2.1}{}}
\@writefile{toc}{\contentsline {subsection}{\numberline {2.1.1}Storia dei sistemi embedded}{5}{subsection.2.1.1}\protected@file@percent }
\citation{OpenEmbedded}
\@writefile{toc}{\contentsline {section}{\numberline {2.2}Yocto}{6}{section.2.2}\protected@file@percent }
\@writefile{toc}{\contentsline {subsection}{\numberline {2.2.1}Termini importanti per capire yocto}{6}{subsection.2.2.1}\protected@file@percent }
\newlabel{sec:image}{{2.2.1}{7}{Image}{Item.3}{}}
\@writefile{toc}{\contentsline {subsection}{\numberline {2.2.2}La struttura di yocto}{7}{subsection.2.2.2}\protected@file@percent }
\@writefile{lof}{\contentsline {figure}{\numberline {2.1}{\ignorespaces Struttura generale di Yocto\relax }}{8}{figure.caption.4}\protected@file@percent }
\@writefile{lof}{\contentsline {figure}{\numberline {2.2}{\ignorespaces Componenti dei vari elementi chiave di yocto\relax }}{9}{figure.caption.5}\protected@file@percent }
\@writefile{toc}{\contentsline {subsection}{\numberline {2.2.3}Perché usare yocto}{9}{subsection.2.2.3}\protected@file@percent }
\citation{cve}
\citation{yoctoecosystem}
\@writefile{lof}{\contentsline {figure}{\numberline {2.3}{\ignorespaces Il processo di creazione di un image yocto\relax }}{10}{figure.caption.6}\protected@file@percent }
\providecommand*\caption@xref[2]{\@setref\relax\@undefined{#1}}
\newlabel{fig:yoctoDiagram}{{2.3}{10}{Il processo di creazione di un image yocto\relax }{figure.caption.6}{}}
\citation{esf}
\@writefile{toc}{\contentsline {subsection}{\numberline {2.2.4}Svantaggi dell'uso di yocto}{11}{subsection.2.2.4}\protected@file@percent }
\@writefile{toc}{\contentsline {section}{\numberline {2.3}ESF}{11}{section.2.3}\protected@file@percent }
\@writefile{lof}{\contentsline {figure}{\numberline {2.4}{\ignorespaces La struttura di ESF\relax }}{12}{figure.caption.7}\protected@file@percent }
\newlabel{fig:esf}{{2.4}{12}{La struttura di ESF\relax }{figure.caption.7}{}}
\@writefile{lof}{\contentsline {figure}{\numberline {2.5}{\ignorespaces Esempio dell'interfaccia ESF\relax }}{13}{figure.caption.8}\protected@file@percent }
\newlabel{fig:esf interface}{{2.5}{13}{Esempio dell'interfaccia ESF\relax }{figure.caption.8}{}}
\@writefile{toc}{\contentsline {chapter}{\numberline {3}Sicurezza Informatica}{15}{chapter.3}\protected@file@percent }
\@writefile{lof}{\addvspace {10\p@ }}
\@writefile{lot}{\addvspace {10\p@ }}
\@writefile{toc}{\contentsline {section}{\numberline {3.1}La triade CIA}{15}{section.3.1}\protected@file@percent }
\@writefile{toc}{\contentsline {subsection}{\numberline {3.1.1}Cos'è la riservatezza?}{15}{subsection.3.1.1}\protected@file@percent }
\@writefile{lof}{\contentsline {figure}{\numberline {3.1}{\ignorespaces La triade CIA\relax }}{16}{figure.caption.9}\protected@file@percent }
\newlabel{fig:cia}{{3.1}{16}{La triade CIA\relax }{figure.caption.9}{}}
\@writefile{toc}{\contentsline {subsection}{\numberline {3.1.2}Cos'è l'integrità?}{16}{subsection.3.1.2}\protected@file@percent }
\@writefile{toc}{\contentsline {subsection}{\numberline {3.1.3}Cos'è la disponibilità?}{16}{subsection.3.1.3}\protected@file@percent }
\@writefile{lof}{\contentsline {figure}{\numberline {3.2}{\ignorespaces Il funzionamento di un IPS\relax }}{17}{figure.caption.10}\protected@file@percent }
\@writefile{toc}{\contentsline {section}{\numberline {3.2}I due approcci della sicurezza}{17}{section.3.2}\protected@file@percent }
\newlabel{sec:sistemi sicurezza}{{3.2}{17}{I due approcci della sicurezza}{section.3.2}{}}
\@writefile{toc}{\contentsline {subsection}{\numberline {3.2.1}Intrusion Prevention System (IPS)}{17}{subsection.3.2.1}\protected@file@percent }
\newlabel{sec:IPS}{{3.2.1}{17}{Intrusion Prevention System (IPS)}{subsection.3.2.1}{}}
\@writefile{lof}{\contentsline {figure}{\numberline {3.3}{\ignorespaces Il funzionamento di un IDS\relax }}{19}{figure.caption.11}\protected@file@percent }
\@writefile{toc}{\contentsline {subsection}{\numberline {3.2.2}Intrusion Detection System (IDS)}{19}{subsection.3.2.2}\protected@file@percent }
\newlabel{sec:IDS}{{3.2.2}{19}{Intrusion Detection System (IDS)}{subsection.3.2.2}{}}
\@writefile{toc}{\contentsline {subsection}{\numberline {3.2.3}IPS vs IDS}{20}{subsection.3.2.3}\protected@file@percent }
\@writefile{toc}{\contentsline {section}{\numberline {3.3}SCAP}{20}{section.3.3}\protected@file@percent }
\@writefile{lof}{\contentsline {figure}{\numberline {3.4}{\ignorespaces IDS e IPS a confronto\relax }}{21}{figure.caption.12}\protected@file@percent }
\newlabel{termine xccdf}{{3.3}{21}{XCCDF eXtensible Configuration Checklist Description Format}{section.3.3}{}}
\newlabel{termine sds}{{3.3}{21}{SDS Source Data Stream}{section.3.3}{}}
\citation{SCAP1}
\citation{SCAP2}
\citation{SCAP3}
\@writefile{toc}{\contentsline {subsection}{\numberline {3.3.1}SCAP content}{22}{subsection.3.3.1}\protected@file@percent }
\@writefile{toc}{\contentsline {subsection}{\numberline {3.3.2}SCAP scanner}{22}{subsection.3.3.2}\protected@file@percent }
\citation{ReliaGATE}
\@writefile{toc}{\contentsline {chapter}{\numberline {4}Analisi del progetto e progetto della soluzione}{23}{chapter.4}\protected@file@percent }
\@writefile{lof}{\addvspace {10\p@ }}
\@writefile{lot}{\addvspace {10\p@ }}
\@writefile{toc}{\contentsline {section}{\numberline {4.1}Sistema embedded usato}{23}{section.4.1}\protected@file@percent }
\@writefile{lof}{\contentsline {figure}{\numberline {4.1}{\ignorespaces Componenti del ReliaGATE 10-12\relax }}{24}{figure.caption.13}\protected@file@percent }
\newlabel{fig:compReliagate}{{4.1}{24}{Componenti del ReliaGATE 10-12\relax }{figure.caption.13}{}}
\@writefile{lof}{\contentsline {figure}{\numberline {4.2}{\ignorespaces Esempio espansione del ReliaGATE 10-12\relax }}{24}{figure.caption.14}\protected@file@percent }
\newlabel{fig:reliagate}{{4.2}{24}{Esempio espansione del ReliaGATE 10-12\relax }{figure.caption.14}{}}
\@writefile{toc}{\contentsline {section}{\numberline {4.2}Analisi problema}{25}{section.4.2}\protected@file@percent }
\@writefile{toc}{\contentsline {subsection}{\numberline {4.2.1}Requisiti funzionali}{25}{subsection.4.2.1}\protected@file@percent }
\newlabel{reqF:1}{{1}{25}{Requisiti funzionali}{Item.11}{}}
\newlabel{reqF:2}{{2}{25}{Requisiti funzionali}{Item.12}{}}
\newlabel{reqF:3}{{3}{25}{Requisiti funzionali}{Item.13}{}}
\newlabel{reqF:4}{{4}{25}{Requisiti funzionali}{Item.14}{}}
\@writefile{toc}{\contentsline {subsection}{\numberline {4.2.2}Requisiti non-funzionali}{25}{subsection.4.2.2}\protected@file@percent }
\newlabel{reqNF:1}{{1}{25}{Requisiti non-funzionali}{Item.15}{}}
\newlabel{reqNF:2}{{2}{25}{Requisiti non-funzionali}{Item.16}{}}
\newlabel{reqNF:3}{{3}{25}{Requisiti non-funzionali}{Item.17}{}}
\newlabel{reqNF:4}{{4}{25}{Requisiti non-funzionali}{Item.18}{}}
\newlabel{reqNF:5}{{5}{26}{Requisiti non-funzionali}{Item.19}{}}
\newlabel{reqNF:6}{{6}{26}{Requisiti non-funzionali}{Item.20}{}}
\newlabel{reqNF:7}{{7}{26}{Requisiti non-funzionali}{Item.21}{}}
\@writefile{toc}{\contentsline {chapter}{\numberline {5}Implementazioni}{27}{chapter.5}\protected@file@percent }
\@writefile{lof}{\addvspace {10\p@ }}
\@writefile{lot}{\addvspace {10\p@ }}
\@writefile{lof}{\contentsline {figure}{\numberline {5.1}{\ignorespaces Fail2Ban logo\relax }}{28}{figure.caption.15}\protected@file@percent }
\newlabel{fig:fail2ban}{{5.1}{28}{Fail2Ban logo\relax }{figure.caption.15}{}}
\@writefile{toc}{\contentsline {section}{\numberline {5.1}Fail2Ban}{28}{section.5.1}\protected@file@percent }
\newlabel{sec:Fail2Ban}{{5.1}{28}{Fail2Ban}{section.5.1}{}}
\@writefile{toc}{\contentsline {subsection}{\numberline {5.1.1}Analisi/benefici Fail2Ban}{28}{subsection.5.1.1}\protected@file@percent }
\@writefile{lof}{\contentsline {figure}{\numberline {5.2}{\ignorespaces OpenSCAP logo\relax }}{30}{figure.caption.16}\protected@file@percent }
\newlabel{fig:openscap}{{5.2}{30}{OpenSCAP logo\relax }{figure.caption.16}{}}
\@writefile{toc}{\contentsline {section}{\numberline {5.2}OpenSCAP}{30}{section.5.2}\protected@file@percent }
\newlabel{sec:OpenSCAP}{{5.2}{30}{OpenSCAP}{section.5.2}{}}
\@writefile{toc}{\contentsline {subsection}{\numberline {5.2.1}Analisi/benefici OpenSCAP}{31}{subsection.5.2.1}\protected@file@percent }
\@writefile{toc}{\contentsline {section}{\numberline {5.3}AIDE}{32}{section.5.3}\protected@file@percent }
\newlabel{sec:AIDE}{{5.3}{32}{AIDE}{section.5.3}{}}
\@writefile{toc}{\contentsline {subsection}{\numberline {5.3.1}Analisi/benefici AIDE}{32}{subsection.5.3.1}\protected@file@percent }
\@writefile{toc}{\contentsline {section}{\numberline {5.4}Samhain}{33}{section.5.4}\protected@file@percent }
\newlabel{sec:Samhain}{{5.4}{33}{Samhain}{section.5.4}{}}
\@writefile{toc}{\contentsline {subsection}{\numberline {5.4.1}Analisi/benefici Samhain}{33}{subsection.5.4.1}\protected@file@percent }
\@writefile{lof}{\contentsline {figure}{\numberline {5.3}{\ignorespaces Snort Logo\relax }}{34}{figure.caption.17}\protected@file@percent }
\newlabel{fig:snort}{{5.3}{34}{Snort Logo\relax }{figure.caption.17}{}}
\@writefile{toc}{\contentsline {section}{\numberline {5.5}Snort}{34}{section.5.5}\protected@file@percent }
\newlabel{sec:Snort}{{5.5}{34}{Snort}{section.5.5}{}}
\@writefile{lof}{\contentsline {figure}{\numberline {5.4}{\ignorespaces Struttura regola Snort\relax }}{35}{figure.caption.18}\protected@file@percent }
\newlabel{fig:snort regola}{{5.4}{35}{Struttura regola Snort\relax }{figure.caption.18}{}}
\@writefile{toc}{\contentsline {subsection}{\numberline {5.5.1}Analisi/benefici Snort}{36}{subsection.5.5.1}\protected@file@percent }
\@writefile{lof}{\contentsline {figure}{\numberline {5.5}{\ignorespaces Suricata logo\relax }}{37}{figure.caption.19}\protected@file@percent }
\newlabel{fig:suricata}{{5.5}{37}{Suricata logo\relax }{figure.caption.19}{}}
\@writefile{toc}{\contentsline {section}{\numberline {5.6}Suricata}{37}{section.5.6}\protected@file@percent }
\newlabel{sec:Suricata}{{5.6}{37}{Suricata}{section.5.6}{}}
\@writefile{toc}{\contentsline {subsection}{\numberline {5.6.1}Analisi/benefici Suricata}{40}{subsection.5.6.1}\protected@file@percent }
\@writefile{lof}{\contentsline {figure}{\numberline {5.6}{\ignorespaces SELinux logo\relax }}{41}{figure.caption.20}\protected@file@percent }
\newlabel{fig:selinux}{{5.6}{41}{SELinux logo\relax }{figure.caption.20}{}}
\@writefile{toc}{\contentsline {section}{\numberline {5.7}SELinux}{41}{section.5.7}\protected@file@percent }
\newlabel{sec:SELinux}{{5.7}{41}{SELinux}{section.5.7}{}}
\@writefile{toc}{\contentsline {subsection}{\numberline {5.7.1}Come funziona SELinux}{41}{subsection.5.7.1}\protected@file@percent }
\@writefile{lof}{\contentsline {figure}{\numberline {5.7}{\ignorespaces Modalità di controllo permessi di SELinux\relax }}{42}{figure.caption.21}\protected@file@percent }
\newlabel{fig:selinux mode}{{5.7}{42}{Modalità di controllo permessi di SELinux\relax }{figure.caption.21}{}}
\@writefile{lof}{\contentsline {figure}{\numberline {5.8}{\ignorespaces esempio di ls -lZ\relax }}{43}{figure.caption.22}\protected@file@percent }
\newlabel{fig:selinux ls}{{5.8}{43}{esempio di ls -lZ\relax }{figure.caption.22}{}}
\@writefile{lof}{\contentsline {figure}{\numberline {5.9}{\ignorespaces esempio di ps -eZ\relax }}{43}{figure.caption.23}\protected@file@percent }
\newlabel{fig:selinux ps}{{5.9}{43}{esempio di ps -eZ\relax }{figure.caption.23}{}}
\@writefile{toc}{\contentsline {subsection}{\numberline {5.7.2}SELinux policy}{43}{subsection.5.7.2}\protected@file@percent }
\@writefile{toc}{\contentsline {subsection}{\numberline {5.7.3}Analisi/benefici Selinux}{44}{subsection.5.7.3}\protected@file@percent }
\newlabel{sec:selinux an-be}{{5.7.3}{44}{Analisi/benefici Selinux}{subsection.5.7.3}{}}
\@writefile{toc}{\contentsline {section}{\numberline {5.8}Tabella riassuntiva}{45}{section.5.8}\protected@file@percent }
\@writefile{lot}{\contentsline {table}{\numberline {5.1}{\ignorespaces Tabella riassuntiva\relax }}{45}{table.caption.24}\protected@file@percent }
\@writefile{toc}{\contentsline {subsection}{\numberline {5.8.1}Legenda Tabella}{45}{subsection.5.8.1}\protected@file@percent }
\newlabel{tab:riassunto}{{5.8.1}{45}{Legenda Tabella}{subsection.5.8.1}{}}
\@writefile{toc}{\contentsline {section}{\numberline {5.9}Implementazione}{45}{section.5.9}\protected@file@percent }
\@writefile{toc}{\contentsline {chapter}{\numberline {6}Valutazione conclusiva progetto}{47}{chapter.6}\protected@file@percent }
\@writefile{lof}{\addvspace {10\p@ }}
\@writefile{lot}{\addvspace {10\p@ }}
\@writefile{toc}{\contentsline {section}{\numberline {6.1}Cosa è stato fatto}{47}{section.6.1}\protected@file@percent }
\@writefile{toc}{\contentsline {section}{\numberline {6.2}Valutazione}{47}{section.6.2}\protected@file@percent }
\@writefile{toc}{\contentsline {section}{\numberline {6.3}Possibili sviluppi futuri}{48}{section.6.3}\protected@file@percent }
\bibstyle{plain_italian}
\bibdata{thud}
\bibcite{cve}{1}
\bibcite{SCAP2}{2}
\bibcite{ids-vs-ips}{3}
\bibcite{yoctoecosystem}{4}
\bibcite{esf}{5}
\bibcite{ReliaGATE}{6}
\bibcite{SCAP3}{7}
\bibcite{SCAP1}{8}
\bibcite{sicRet}{9}
\bibcite{OpenEmbedded}{10}
\@writefile{toc}{\contentsline {chapter}{Bibliografia}{51}{chapter*.25}\protected@file@percent }
\gdef \@abspage@last{61}
