# Fdb version 3
["pdflatex"] 1609694352 "d:/Uni/UNI/thud/thesis.tex" "d:/Uni/UNI/thud/thesis.pdf" "thesis" 1609694352
  "D:/Program Files/MiKTeX/tex/generic/babel/babel.def" 1608117712 117118 40925d3905bd1d978e7984088532b6b9 ""
  "D:/Program Files/MiKTeX/tex/generic/babel/babel.sty" 1608117712 37815 f998d8a7a5e9e81037aa46c3e80ef789 ""
  "D:/Program Files/MiKTeX/tex/generic/babel/txtbabel.def" 1608117712 5230 e5dd3bd60e99368f77a36ca54b2bb859 ""
  "D:/Program Files/MiKTeX/tex/generic/iftex/ifluatex.sty" 1583523400 492 1994775aa15b0d1289725a0b1bbc2d4c ""
  "D:/Program Files/MiKTeX/tex/generic/iftex/ifpdf.sty" 1583523400 480 5778104efadad304ced77548ca2184b1 ""
  "D:/Program Files/MiKTeX/tex/generic/iftex/iftex.sty" 1583523400 6501 4011d89d9621e0b0901138815ba5ff29 ""
  "D:/Program Files/MiKTeX/tex/generic/iftex/ifvtex.sty" 1583523400 1057 525c2192b5febbd8c1f662c9468335bb ""
  "D:/Program Files/MiKTeX/tex/generic/iftex/ifxetex.sty" 1583523400 488 4565444a3e75e59cb2702dc42e18f482 ""
  "D:/Program Files/MiKTeX/tex/generic/infwarerr/infwarerr.sty" 1575399508 8356 7bbb2c2373aa810be568c29e333da8ed ""
  "D:/Program Files/MiKTeX/tex/generic/kvdefinekeys/kvdefinekeys.sty" 1576763304 5412 d5a2436094cd7be85769db90f29250a6 ""
  "D:/Program Files/MiKTeX/tex/generic/kvsetkeys/kvsetkeys.sty" 1576433820 13807 952b0226d4efca026f0e19dd266dcc22 ""
  "D:/Program Files/MiKTeX/tex/generic/ltxcmds/ltxcmds.sty" 1601732009 18568 4409f8f50cd365c68e684407e5350b1b ""
  "D:/Program Files/MiKTeX/tex/generic/pdfescape/pdfescape.sty" 1575926700 19007 15924f7228aca6c6d184b115f4baa231 ""
  "D:/Program Files/MiKTeX/tex/generic/pdftexcmds/pdftexcmds.sty" 1593439940 20835 80423eac55aa175305d35b49e04fe23b ""
  "D:/Program Files/MiKTeX/tex/latex/arabi/bblopts.cfg" 1139961600 902 c30e5c373bc58bde21f8f63a3091626f ""
  "D:/Program Files/MiKTeX/tex/latex/auxhook/auxhook.sty" 1576538732 3935 57aa3c3e203a5c2effb4d2bd2efbc323 ""
  "D:/Program Files/MiKTeX/tex/latex/babel-english/english.ldf" 1496842898 7219 9ff5fdcc865b01beca2b0fe4a46231d4 ""
  "D:/Program Files/MiKTeX/tex/latex/babel-italian/italian.ldf" 1590249716 11706 c338c4a47651f95dee3fc5c3dbc21081 ""
  "D:/Program Files/MiKTeX/tex/latex/base/bk11.clo" 1603697616 8304 dba46fa940d03f572ab75ca8bc539568 ""
  "D:/Program Files/MiKTeX/tex/latex/base/book.cls" 1603697616 23269 46aa9b22aad0e958412c5a46b0e46893 ""
  "D:/Program Files/MiKTeX/tex/latex/base/everyshi-ltx.sty" 1603697618 2591 e05ff9b978904bf6b96333c3ec49f776 ""
  "D:/Program Files/MiKTeX/tex/latex/base/inputenc.sty" 1603697618 5050 0d3b77275060ca09a40635b830c3c904 ""
  "D:/Program Files/MiKTeX/tex/latex/etoolbox/etoolbox.sty" 1601894156 46845 3b58f70c6e861a13d927bff09d35ecbc ""
  "D:/Program Files/MiKTeX/tex/latex/geometry/geometry.cfg" 1578053545 1104 7ac475a4e3466b0b43e138e9356bda83 ""
  "D:/Program Files/MiKTeX/tex/latex/geometry/geometry.sty" 1578053545 42759 9cf6c5257b1bc7af01a58859749dd37a ""
  "D:/Program Files/MiKTeX/tex/latex/graphics-cfg/color.cfg" 1465890692 1213 620bba36b25224fa9b7e1ccb4ecb76fd ""
  "D:/Program Files/MiKTeX/tex/latex/graphics-cfg/graphics.cfg" 1465890692 1224 978390e9c2234eab29404bc21b268d1e ""
  "D:/Program Files/MiKTeX/tex/latex/graphics-def/pdftex.def" 1601874598 19103 48d29b6e2a64cb717117ef65f107b404 ""
  "D:/Program Files/MiKTeX/tex/latex/graphics/graphics.sty" 1601741526 18881 a8c6a275b34ab6717ceeb8fa04b104e2 ""
  "D:/Program Files/MiKTeX/tex/latex/graphics/graphicx.sty" 1601741526 8167 20fdfdd783821971c55bc8ee918cbe63 ""
  "D:/Program Files/MiKTeX/tex/latex/graphics/keyval.sty" 1601741526 2677 e3b24ff953e5b58d924f163d25380312 ""
  "D:/Program Files/MiKTeX/tex/latex/graphics/trig.sty" 1601741526 4093 d7fa7d81d2870d509d25b17d0245e735 ""
  "D:/Program Files/MiKTeX/tex/latex/hycolor/hycolor.sty" 1580380792 18571 4c28a13fc3d975e6e81c9bea1d697276 ""
  "D:/Program Files/MiKTeX/tex/latex/hyperref/hyperref.sty" 1589579336 236775 8ab18a05f69e6caef423fa59cb0af03b ""
  "D:/Program Files/MiKTeX/tex/latex/kvoptions/kvoptions.sty" 1602224496 22521 d2fceb764a442a2001d257ef11db7618 ""
  "D:/Program Files/MiKTeX/tex/latex/letltxmacro/letltxmacro.sty" 1575399536 5766 13a9e8766c47f30327caf893ece86ac8 ""
  "D:/Program Files/MiKTeX/tex/latex/pdfx/l8u-penc.def" 1543423448 173899 c019d28cc75c9b7ff01d114ccb8449bd ""
  "D:/Program Files/MiKTeX/tex/latex/pdfx/pdfx.sty" 1552294325 112672 fbc1db3d28e53e6589d1cf9c8bf1eb1d ""
  "D:/Program Files/MiKTeX/tex/latex/psnfss/helvet.sty" 1585923171 1558 de0ad166b701b820e03588a29bb30798 ""
  "D:/Program Files/MiKTeX/tex/latex/setspace/setspace.sty" 1324294077 22913 a27d7908fc6f0385466454a966a316eb ""
  "D:/Program Files/MiKTeX/tex/latex/xcolor/xcolor.sty" 1463131981 57049 34128738f682d033422ca125f82e5d62 ""
  "book.thud.tex" 1579643155 8287 c1c9b7f142a584a70681cc66ea774658 ""
  "d:/Uni/UNI/thud/thesis.aux" 1579643965 1606 ae4a0d64df11725b4001f2db4e33b071 ""
  "d:/Uni/UNI/thud/thesis.tex" 1609694350 14537 c614c54ba86d204702da7b29a18fec60 ""
  "thesis.tex" 1609694352 14536 158dc22345ba64af04778dccb5541c83 ""
  "thud.cls" 1579641182 6489 1b2a3b1e4df30874852b8b7f33e9f63a ""
  (generated)
  "d:/Uni/UNI/thud/thesis.pdf"
  "d:/Uni/UNI/thud/thesis.log"
